{
  "tracks": {
    "href": "https://api.spotify.com/v1/search?query=Hello&type=track&offset=0&limit=1",
    "items": [
      {
        "album": {
          "album_type": "album",
          "artists": [
            {
              "external_urls": {
                "spotify": "https://open.spotify.com/artist/4dpARuHxo51G3z768sgnrY"
              },
              "href": "https://api.spotify.com/v1/artists/4dpARuHxo51G3z768sgnrY",
              "id": "4dpARuHxo51G3z768sgnrY",
              "name": "Adele",
              "type": "artist",
              "uri": "spotify:artist:4dpARuHxo51G3z768sgnrY"
            }
          ],
          "available_markets": [
            "AR",
            "BO",
            "BR",
            "CL",
            "CO",
            "CR",
            "DO",
            "EC",
            "GT",
            "HN",
            "MX",
            "NI",
            "PA",
            "PE",
            "PY",
            "SV",
            "US",
            "UY"
          ],
          "external_urls": {
            "spotify": "https://open.spotify.com/album/0K4pIOOsfJ9lK8OjrZfXzd"
          },
          "href": "https://api.spotify.com/v1/albums/0K4pIOOsfJ9lK8OjrZfXzd",
          "id": "0K4pIOOsfJ9lK8OjrZfXzd",
          "images": [
            {
              "height": 640,
              "url": "https://i.scdn.co/image/602102500b9cebde7559a5f9c16daaaef2846440",
              "width": 640
            },
            {
              "height": 300,
              "url": "https://i.scdn.co/image/1ee2055a078d87a5a55366189409b9e1d820972a",
              "width": 300
            },
            {
              "height": 64,
              "url": "https://i.scdn.co/image/7afb855c28a2c8ad5ed9d51460736f4022e60bbf",
              "width": 64
            }
          ],
          "name": "25",
          "release_date": "2016-06-24",
          "release_date_precision": "day",
          "total_tracks": 11,
          "type": "album",
          "uri": "spotify:album:0K4pIOOsfJ9lK8OjrZfXzd"
        },
        "artists": [
          {
            "external_urls": {
              "spotify": "https://open.spotify.com/artist/4dpARuHxo51G3z768sgnrY"
            },
            "href": "https://api.spotify.com/v1/artists/4dpARuHxo51G3z768sgnrY",
            "id": "4dpARuHxo51G3z768sgnrY",
            "name": "Adele",
            "type": "artist",
            "uri": "spotify:artist:4dpARuHxo51G3z768sgnrY"
          }
        ],
        "available_markets": [
          "AR",
          "BO",
          "BR",
          "CL",
          "CO",
          "CR",
          "DO",
          "EC",
          "GT",
          "HN",
          "MX",
          "NI",
          "PA",
          "PE",
          "PY",
          "SV",
          "US",
          "UY"
        ],
        "disc_number": 1,
        "duration_ms": 295493,
        "explicit": false,
        "external_ids": {
          "isrc": "GBBKS1500214"
        },
        "external_urls": {
          "spotify": "https://open.spotify.com/track/4sPmO7WMQUAf45kwMOtONw"
        },
        "href": "https://api.spotify.com/v1/tracks/4sPmO7WMQUAf45kwMOtONw",
        "id": "4sPmO7WMQUAf45kwMOtONw",
        "is_local": false,
        "name": "Hello",
        "popularity": 71,
        //"preview_url": "https://p.scdn.co/mp3-preview/0b90429fd554bad6785faa2b8931d613db4a0ee4?cid=1640ebdeeaa34cce93d13a9c53b3cbbe",
        "track_number": 1,
        "type": "track",
        "uri": "spotify:track:4sPmO7WMQUAf45kwMOtONw"
      }
    ],
    "limit": 1,
    "next": "https://api.spotify.com/v1/search?query=Hello&type=track&offset=1&limit=1",
    "offset": 0,
    "previous": null,
    "total": 54972
  }
}